A dataset of reviews — reviews • shoppingwords
…
    A tbl_df with with 260,308 rows and 3 variables:
rating
Rating score, out of 5.

comment
Comment text, in Turkish.

id
Rating ID.

    Examples

reviews
#> # A tibble: 260,308 × 3
#>    rating comment                                                             id
#>     <dbl> <chr>                                                            <dbl>
#>  1      5 Yorum gözüksün diye 5 yıldız verdim 5li paket diye sipariş verd…  3573
#>  2      5 Yorum öne çıksın diye beş puan verdim, kalitesiz bir ürün olmas…  3975
#>  3      5 rahat değil tüy döküyo öne çıksın diye 5 verdim                   4910
#>  4      5 başa çıkması için 5 yıldız versim yoksa değmez pes valla çok pi…  4950
#>  5      1 2xl aldigimda harika bir urundu m olani aldim kizima inanamadim…  5908
#>  6      5 Ürün kumaşı göründüğü gibi değil görünsün diye beş yıldız verdim  6144
#>  7      5 Üstte çıksın diye 5 yıldız verdim kumaş kalitesi çok kötü doğru…  6192
#>  8      5 her kez görsün diya yildiz koydum bu normal bildiniz tişört ove…  6335
#>  9      2 Penye kalitesi çok da iyi değil                                   6370
#> 10      3 kalıbı çok bol. o yüzden biçimsiz duruyor                         6371
#> # ℹ 260,298 more rows
…
